^C:\DOCUMENTS AND SETTINGS\SOLENT REWINDS\MY DOCUMENTS\VISUAL STUDIO 2010\PROJECTS\WIRECALCTEST\WIRECALCTEST\FORM1.RESX|C:\DOCUMENTS AND SETTINGS\SOLENT REWINDS\MY DOCUMENTS\VISUAL STUDIO 2010\PROJECTS\WIRECALCTEST\WIRECALCTEST\MY PROJECT\RESOURCES.RESX
C:\DOCUMENTS AND SETTINGS\SOLENT REWINDS\MY DOCUMENTS\VISUAL STUDIO 2010\PROJECTS\WIRECALCTEST\WIRECALCTEST\OBJ\X86\DEBUG\WIRECALCTEST.FORM1.RESOURCES
C:\DOCUMENTS AND SETTINGS\SOLENT REWINDS\MY DOCUMENTS\VISUAL STUDIO 2010\PROJECTS\WIRECALCTEST\WIRECALCTEST\OBJ\X86\DEBUG\WIRECALCTEST.RESOURCES.RESOURCES
^C:\USERS\ANDREW\DOCUMENTS\VISUAL STUDIO 2010\PROJECTS\WIRECALCTEST\WIRECALCTEST\FORM1.RESX|C:\USERS\ANDREW\DOCUMENTS\VISUAL STUDIO 2010\PROJECTS\WIRECALCTEST\WIRECALCTEST\MY PROJECT\RESOURCES.RESX
C:\USERS\ANDREW\DOCUMENTS\VISUAL STUDIO 2010\PROJECTS\WIRECALCTEST\WIRECALCTEST\OBJ\X86\DEBUG\WIRECALCTEST.FORM1.RESOURCES
C:\USERS\ANDREW\DOCUMENTS\VISUAL STUDIO 2010\PROJECTS\WIRECALCTEST\WIRECALCTEST\OBJ\X86\DEBUG\WIRECALCTEST.RESOURCES.RESOURCES
^C:\USERS\ANDREW\DOCUMENTS\VISUAL STUDIO 2010\PROJECTS\WIRECALCTEST\WIRECALCTEST\FORM1.RESX|C:\USERS\ANDREW\DOCUMENTS\VISUAL STUDIO 2010\PROJECTS\WIRECALCTEST\WIRECALCTEST\MY PROJECT\RESOURCES.RESX|C:\USERS\ANDREW\DOCUMENTS\VISUAL STUDIO 2010\PROJECTS\WIRECALCTEST\WIRECALCTEST\SPLASHSCREEN1.RESX
C:\USERS\ANDREW\DOCUMENTS\VISUAL STUDIO 2010\PROJECTS\WIRECALCTEST\WIRECALCTEST\OBJ\X86\DEBUG\WIRECALCTEST.FORM1.RESOURCES
C:\USERS\ANDREW\DOCUMENTS\VISUAL STUDIO 2010\PROJECTS\WIRECALCTEST\WIRECALCTEST\OBJ\X86\DEBUG\WIRECALCTEST.RESOURCES.RESOURCES
C:\USERS\ANDREW\DOCUMENTS\VISUAL STUDIO 2010\PROJECTS\WIRECALCTEST\WIRECALCTEST\OBJ\X86\DEBUG\WIRECALCTEST.SPLASHSCREEN1.RESOURCES
^C:\DOCUMENTS AND SETTINGS\SOLENT REWINDS\MY DOCUMENTS\VISUAL STUDIO 2010\PROJECTS\WIRECALCTEST\WIRECALCTEST\FORM1.RESX|C:\DOCUMENTS AND SETTINGS\SOLENT REWINDS\MY DOCUMENTS\VISUAL STUDIO 2010\PROJECTS\WIRECALCTEST\WIRECALCTEST\FORM2.RESX|C:\DOCUMENTS AND SETTINGS\SOLENT REWINDS\MY DOCUMENTS\VISUAL STUDIO 2010\PROJECTS\WIRECALCTEST\WIRECALCTEST\MY PROJECT\RESOURCES.RESX|C:\DOCUMENTS AND SETTINGS\SOLENT REWINDS\MY DOCUMENTS\VISUAL STUDIO 2010\PROJECTS\WIRECALCTEST\WIRECALCTEST\SPLASHSCREEN1.RESX
C:\DOCUMENTS AND SETTINGS\SOLENT REWINDS\MY DOCUMENTS\VISUAL STUDIO 2010\PROJECTS\WIRECALCTEST\WIRECALCTEST\OBJ\X86\DEBUG\WIRECALCTEST.FORM1.RESOURCES
C:\DOCUMENTS AND SETTINGS\SOLENT REWINDS\MY DOCUMENTS\VISUAL STUDIO 2010\PROJECTS\WIRECALCTEST\WIRECALCTEST\OBJ\X86\DEBUG\WIRECALCTEST.FORM2.RESOURCES
C:\DOCUMENTS AND SETTINGS\SOLENT REWINDS\MY DOCUMENTS\VISUAL STUDIO 2010\PROJECTS\WIRECALCTEST\WIRECALCTEST\OBJ\X86\DEBUG\WIRECALCTEST.RESOURCES.RESOURCES
C:\DOCUMENTS AND SETTINGS\SOLENT REWINDS\MY DOCUMENTS\VISUAL STUDIO 2010\PROJECTS\WIRECALCTEST\WIRECALCTEST\OBJ\X86\DEBUG\WIRECALCTEST.SPLASHSCREEN1.RESOURCES
^C:\USERS\ANDREW\DOCUMENTS\VISUAL STUDIO 2010\PROJECTS\WIRECALCTEST\WIRECALCTEST\FORM1.RESX|C:\USERS\ANDREW\DOCUMENTS\VISUAL STUDIO 2010\PROJECTS\WIRECALCTEST\WIRECALCTEST\FORM2.RESX|C:\USERS\ANDREW\DOCUMENTS\VISUAL STUDIO 2010\PROJECTS\WIRECALCTEST\WIRECALCTEST\MY PROJECT\RESOURCES.RESX|C:\USERS\ANDREW\DOCUMENTS\VISUAL STUDIO 2010\PROJECTS\WIRECALCTEST\WIRECALCTEST\SPLASHSCREEN1.RESX
C:\USERS\ANDREW\DOCUMENTS\VISUAL STUDIO 2010\PROJECTS\WIRECALCTEST\WIRECALCTEST\OBJ\X86\DEBUG\WIRECALCTEST.FORM2.RESOURCES
^C:\USERS\SOLENT REWINDS LTD\DOCUMENTS\VISUAL STUDIO 2010\PROJECTS\WIRECALCTEST\WIRECALCTEST\FORM1.RESX|C:\USERS\SOLENT REWINDS LTD\DOCUMENTS\VISUAL STUDIO 2010\PROJECTS\WIRECALCTEST\WIRECALCTEST\FORM2.RESX|C:\USERS\SOLENT REWINDS LTD\DOCUMENTS\VISUAL STUDIO 2010\PROJECTS\WIRECALCTEST\WIRECALCTEST\MY PROJECT\RESOURCES.RESX|C:\USERS\SOLENT REWINDS LTD\DOCUMENTS\VISUAL STUDIO 2010\PROJECTS\WIRECALCTEST\WIRECALCTEST\SPLASHSCREEN1.RESX
C:\USERS\SOLENT REWINDS LTD\DOCUMENTS\VISUAL STUDIO 2010\PROJECTS\WIRECALCTEST\WIRECALCTEST\OBJ\X86\DEBUG\WIRECALCTEST.FORM1.RESOURCES
C:\USERS\SOLENT REWINDS LTD\DOCUMENTS\VISUAL STUDIO 2010\PROJECTS\WIRECALCTEST\WIRECALCTEST\OBJ\X86\DEBUG\WIRECALCTEST.FORM2.RESOURCES
C:\USERS\SOLENT REWINDS LTD\DOCUMENTS\VISUAL STUDIO 2010\PROJECTS\WIRECALCTEST\WIRECALCTEST\OBJ\X86\DEBUG\WIRECALCTEST.RESOURCES.RESOURCES
C:\USERS\SOLENT REWINDS LTD\DOCUMENTS\VISUAL STUDIO 2010\PROJECTS\WIRECALCTEST\WIRECALCTEST\OBJ\X86\DEBUG\WIRECALCTEST.SPLASHSCREEN1.RESOURCES
^C:\USERS\SOLENT REWINDS LTD\DOCUMENTS\VISUAL STUDIO 2010\PROJECTS\WIRECALCTEST\WIRECALCTEST\FORM1.RESX|C:\USERS\SOLENT REWINDS LTD\DOCUMENTS\VISUAL STUDIO 2010\PROJECTS\WIRECALCTEST\WIRECALCTEST\FORM2.RESX|C:\USERS\SOLENT REWINDS LTD\DOCUMENTS\VISUAL STUDIO 2010\PROJECTS\WIRECALCTEST\WIRECALCTEST\MY PROJECT\RESOURCES.RESX
C:\USERS\SOLENT REWINDS LTD\DOCUMENTS\VISUAL STUDIO 2010\PROJECTS\WIRECALCTEST\WIRECALCTEST\OBJ\X86\DEBUG\WIRECALCTEST.FORM1.RESOURCES
C:\USERS\SOLENT REWINDS LTD\DOCUMENTS\VISUAL STUDIO 2010\PROJECTS\WIRECALCTEST\WIRECALCTEST\OBJ\X86\DEBUG\WIRECALCTEST.FORM2.RESOURCES
C:\USERS\SOLENT REWINDS LTD\DOCUMENTS\VISUAL STUDIO 2010\PROJECTS\WIRECALCTEST\WIRECALCTEST\OBJ\X86\DEBUG\WIRECALCTEST.RESOURCES.RESOURCES
^C:\USERS\SOLENT REWINDS LTD\DOCUMENTS\VISUAL STUDIO 2010\PROJECTS\WIRECALCTEST\WIRECALCTEST\FORM0.RESX|C:\USERS\SOLENT REWINDS LTD\DOCUMENTS\VISUAL STUDIO 2010\PROJECTS\WIRECALCTEST\WIRECALCTEST\FORM1.RESX|C:\USERS\SOLENT REWINDS LTD\DOCUMENTS\VISUAL STUDIO 2010\PROJECTS\WIRECALCTEST\WIRECALCTEST\FORM2.RESX|C:\USERS\SOLENT REWINDS LTD\DOCUMENTS\VISUAL STUDIO 2010\PROJECTS\WIRECALCTEST\WIRECALCTEST\MY PROJECT\RESOURCES.RESX
C:\USERS\SOLENT REWINDS LTD\DOCUMENTS\VISUAL STUDIO 2010\PROJECTS\WIRECALCTEST\WIRECALCTEST\OBJ\X86\DEBUG\WIRECALCTEST.FORM0.RESOURCES
C:\USERS\SOLENT REWINDS LTD\DOCUMENTS\VISUAL STUDIO 2010\PROJECTS\WIRECALCTEST\WIRECALCTEST\OBJ\X86\DEBUG\WIRECALCTEST.FORM1.RESOURCES
C:\USERS\SOLENT REWINDS LTD\DOCUMENTS\VISUAL STUDIO 2010\PROJECTS\WIRECALCTEST\WIRECALCTEST\OBJ\X86\DEBUG\WIRECALCTEST.FORM2.RESOURCES
C:\USERS\SOLENT REWINDS LTD\DOCUMENTS\VISUAL STUDIO 2010\PROJECTS\WIRECALCTEST\WIRECALCTEST\OBJ\X86\DEBUG\WIRECALCTEST.RESOURCES.RESOURCES
^C:\USERS\SOLENT REWINDS LTD\DOCUMENTS\VISUAL STUDIO 2010\PROJECTS\WIRECALCTEST\WIRECALCTEST\FORM1.RESX|C:\USERS\SOLENT REWINDS LTD\DOCUMENTS\VISUAL STUDIO 2010\PROJECTS\WIRECALCTEST\WIRECALCTEST\FORM2.RESX|C:\USERS\SOLENT REWINDS LTD\DOCUMENTS\VISUAL STUDIO 2010\PROJECTS\WIRECALCTEST\WIRECALCTEST\FORM3.RESX|C:\USERS\SOLENT REWINDS LTD\DOCUMENTS\VISUAL STUDIO 2010\PROJECTS\WIRECALCTEST\WIRECALCTEST\MY PROJECT\RESOURCES.RESX
C:\USERS\SOLENT REWINDS LTD\DOCUMENTS\VISUAL STUDIO 2010\PROJECTS\WIRECALCTEST\WIRECALCTEST\OBJ\X86\DEBUG\WIRECALCTEST.FORM1.RESOURCES
C:\USERS\SOLENT REWINDS LTD\DOCUMENTS\VISUAL STUDIO 2010\PROJECTS\WIRECALCTEST\WIRECALCTEST\OBJ\X86\DEBUG\WIRECALCTEST.FORM2.RESOURCES
C:\USERS\SOLENT REWINDS LTD\DOCUMENTS\VISUAL STUDIO 2010\PROJECTS\WIRECALCTEST\WIRECALCTEST\OBJ\X86\DEBUG\WIRECALCTEST.FORM3.RESOURCES
C:\USERS\SOLENT REWINDS LTD\DOCUMENTS\VISUAL STUDIO 2010\PROJECTS\WIRECALCTEST\WIRECALCTEST\OBJ\X86\DEBUG\WIRECALCTEST.RESOURCES.RESOURCES
^C:\USERS\SOLENT REWINDS LTD\DOCUMENTS\VISUAL STUDIO 2010\PROJECTS\WIRECALCTEST\WIRECALCTEST\ABOUTBOX1.RESX|C:\USERS\SOLENT REWINDS LTD\DOCUMENTS\VISUAL STUDIO 2010\PROJECTS\WIRECALCTEST\WIRECALCTEST\FORM1.RESX|C:\USERS\SOLENT REWINDS LTD\DOCUMENTS\VISUAL STUDIO 2010\PROJECTS\WIRECALCTEST\WIRECALCTEST\FORM2.RESX|C:\USERS\SOLENT REWINDS LTD\DOCUMENTS\VISUAL STUDIO 2010\PROJECTS\WIRECALCTEST\WIRECALCTEST\MY PROJECT\RESOURCES.RESX
C:\USERS\SOLENT REWINDS LTD\DOCUMENTS\VISUAL STUDIO 2010\PROJECTS\WIRECALCTEST\WIRECALCTEST\OBJ\X86\DEBUG\WIRECALCTEST.ABOUTBOX1.RESOURCES
C:\USERS\SOLENT REWINDS LTD\DOCUMENTS\VISUAL STUDIO 2010\PROJECTS\WIRECALCTEST\WIRECALCTEST\OBJ\X86\DEBUG\WIRECALCTEST.FORM1.RESOURCES
C:\USERS\SOLENT REWINDS LTD\DOCUMENTS\VISUAL STUDIO 2010\PROJECTS\WIRECALCTEST\WIRECALCTEST\OBJ\X86\DEBUG\WIRECALCTEST.FORM2.RESOURCES
C:\USERS\SOLENT REWINDS LTD\DOCUMENTS\VISUAL STUDIO 2010\PROJECTS\WIRECALCTEST\WIRECALCTEST\OBJ\X86\DEBUG\WIRECALCTEST.RESOURCES.RESOURCES
^C:\USERS\SOLENT REWINDS LTD\DOCUMENTS\VISUAL STUDIO 2010\PROJECTS\WIRECALCTEST\WIRECALCTEST\ABOUTBOX1.RESX|C:\USERS\SOLENT REWINDS LTD\DOCUMENTS\VISUAL STUDIO 2010\PROJECTS\WIRECALCTEST\WIRECALCTEST\FORM1.RESX|C:\USERS\SOLENT REWINDS LTD\DOCUMENTS\VISUAL STUDIO 2010\PROJECTS\WIRECALCTEST\WIRECALCTEST\FORM2.RESX|C:\USERS\SOLENT REWINDS LTD\DOCUMENTS\VISUAL STUDIO 2010\PROJECTS\WIRECALCTEST\WIRECALCTEST\FORM3.RESX|C:\USERS\SOLENT REWINDS LTD\DOCUMENTS\VISUAL STUDIO 2010\PROJECTS\WIRECALCTEST\WIRECALCTEST\MY PROJECT\RESOURCES.RESX
C:\USERS\SOLENT REWINDS LTD\DOCUMENTS\VISUAL STUDIO 2010\PROJECTS\WIRECALCTEST\WIRECALCTEST\OBJ\X86\DEBUG\WIRECALCTEST.ABOUTBOX1.RESOURCES
C:\USERS\SOLENT REWINDS LTD\DOCUMENTS\VISUAL STUDIO 2010\PROJECTS\WIRECALCTEST\WIRECALCTEST\OBJ\X86\DEBUG\WIRECALCTEST.FORM1.RESOURCES
C:\USERS\SOLENT REWINDS LTD\DOCUMENTS\VISUAL STUDIO 2010\PROJECTS\WIRECALCTEST\WIRECALCTEST\OBJ\X86\DEBUG\WIRECALCTEST.FORM2.RESOURCES
C:\USERS\SOLENT REWINDS LTD\DOCUMENTS\VISUAL STUDIO 2010\PROJECTS\WIRECALCTEST\WIRECALCTEST\OBJ\X86\DEBUG\WIRECALCTEST.FORM3.RESOURCES
C:\USERS\SOLENT REWINDS LTD\DOCUMENTS\VISUAL STUDIO 2010\PROJECTS\WIRECALCTEST\WIRECALCTEST\OBJ\X86\DEBUG\WIRECALCTEST.RESOURCES.RESOURCES
^F:\WIRECALCTEST 5\WIRECALCTEST\ABOUTBOX1.RESX|F:\WIRECALCTEST 5\WIRECALCTEST\FORM1.RESX|F:\WIRECALCTEST 5\WIRECALCTEST\FORM2.RESX|F:\WIRECALCTEST 5\WIRECALCTEST\FORM3.RESX|F:\WIRECALCTEST 5\WIRECALCTEST\MY PROJECT\RESOURCES.RESX
F:\WIRECALCTEST 5\WIRECALCTEST\OBJ\X86\DEBUG\WIRECALCTEST.ABOUTBOX1.RESOURCES
F:\WIRECALCTEST 5\WIRECALCTEST\OBJ\X86\DEBUG\WIRECALCTEST.FORM1.RESOURCES
F:\WIRECALCTEST 5\WIRECALCTEST\OBJ\X86\DEBUG\WIRECALCTEST.FORM2.RESOURCES
F:\WIRECALCTEST 5\WIRECALCTEST\OBJ\X86\DEBUG\WIRECALCTEST.FORM3.RESOURCES
F:\WIRECALCTEST 5\WIRECALCTEST\OBJ\X86\DEBUG\WIRECALCTEST.RESOURCES.RESOURCES
^E:\WIRECALCTEST 5\WIRECALCTEST\ABOUTBOX1.RESX|E:\WIRECALCTEST 5\WIRECALCTEST\FORM1.RESX|E:\WIRECALCTEST 5\WIRECALCTEST\FORM2.RESX|E:\WIRECALCTEST 5\WIRECALCTEST\FORM3.RESX|E:\WIRECALCTEST 5\WIRECALCTEST\MY PROJECT\RESOURCES.RESX
E:\WIRECALCTEST 5\WIRECALCTEST\OBJ\X86\DEBUG\WIRECALCTEST.ABOUTBOX1.RESOURCES
E:\WIRECALCTEST 5\WIRECALCTEST\OBJ\X86\DEBUG\WIRECALCTEST.FORM1.RESOURCES
E:\WIRECALCTEST 5\WIRECALCTEST\OBJ\X86\DEBUG\WIRECALCTEST.FORM2.RESOURCES
E:\WIRECALCTEST 5\WIRECALCTEST\OBJ\X86\DEBUG\WIRECALCTEST.FORM3.RESOURCES
E:\WIRECALCTEST 5\WIRECALCTEST\OBJ\X86\DEBUG\WIRECALCTEST.RESOURCES.RESOURCES
^E:\WIRECALCTEST\WIRECALCTEST\ABOUTBOX1.RESX|E:\WIRECALCTEST\WIRECALCTEST\FORM1.RESX|E:\WIRECALCTEST\WIRECALCTEST\FORM2.RESX|E:\WIRECALCTEST\WIRECALCTEST\FORM3.RESX|E:\WIRECALCTEST\WIRECALCTEST\MY PROJECT\RESOURCES.RESX
E:\WIRECALCTEST\WIRECALCTEST\OBJ\X86\DEBUG\WIRECALCTEST.ABOUTBOX1.RESOURCES
E:\WIRECALCTEST\WIRECALCTEST\OBJ\X86\DEBUG\WIRECALCTEST.FORM1.RESOURCES
E:\WIRECALCTEST\WIRECALCTEST\OBJ\X86\DEBUG\WIRECALCTEST.FORM2.RESOURCES
E:\WIRECALCTEST\WIRECALCTEST\OBJ\X86\DEBUG\WIRECALCTEST.FORM3.RESOURCES
E:\WIRECALCTEST\WIRECALCTEST\OBJ\X86\DEBUG\WIRECALCTEST.RESOURCES.RESOURCES
^E:\WIRECALCTEST\WIRECALCTEST\ABOUTBOX1.RESX|E:\WIRECALCTEST\WIRECALCTEST\FORM1.RESX|E:\WIRECALCTEST\WIRECALCTEST\FORM2.RESX|E:\WIRECALCTEST\WIRECALCTEST\FORM3.RESX|E:\WIRECALCTEST\WIRECALCTEST\FORM4.RESX|E:\WIRECALCTEST\WIRECALCTEST\MY PROJECT\RESOURCES.RESX
E:\WIRECALCTEST\WIRECALCTEST\OBJ\X86\DEBUG\WIRECALCTEST.ABOUTBOX1.RESOURCES
E:\WIRECALCTEST\WIRECALCTEST\OBJ\X86\DEBUG\WIRECALCTEST.FORM1.RESOURCES
E:\WIRECALCTEST\WIRECALCTEST\OBJ\X86\DEBUG\WIRECALCTEST.FORM2.RESOURCES
E:\WIRECALCTEST\WIRECALCTEST\OBJ\X86\DEBUG\WIRECALCTEST.FORM3.RESOURCES
E:\WIRECALCTEST\WIRECALCTEST\OBJ\X86\DEBUG\WIRECALCTEST.FORM4.RESOURCES
E:\WIRECALCTEST\WIRECALCTEST\OBJ\X86\DEBUG\WIRECALCTEST.RESOURCES.RESOURCES
^D:\WIRECALCTEST\WIRECALCTEST\ABOUTBOX1.RESX|D:\WIRECALCTEST\WIRECALCTEST\FORM1.RESX|D:\WIRECALCTEST\WIRECALCTEST\FORM2.RESX|D:\WIRECALCTEST\WIRECALCTEST\FORM3.RESX|D:\WIRECALCTEST\WIRECALCTEST\FORM4.RESX|D:\WIRECALCTEST\WIRECALCTEST\MY PROJECT\RESOURCES.RESX
D:\WIRECALCTEST\WIRECALCTEST\OBJ\X86\DEBUG\WIRECALCTEST.ABOUTBOX1.RESOURCES
D:\WIRECALCTEST\WIRECALCTEST\OBJ\X86\DEBUG\WIRECALCTEST.FORM1.RESOURCES
D:\WIRECALCTEST\WIRECALCTEST\OBJ\X86\DEBUG\WIRECALCTEST.FORM2.RESOURCES
D:\WIRECALCTEST\WIRECALCTEST\OBJ\X86\DEBUG\WIRECALCTEST.FORM3.RESOURCES
D:\WIRECALCTEST\WIRECALCTEST\OBJ\X86\DEBUG\WIRECALCTEST.FORM4.RESOURCES
D:\WIRECALCTEST\WIRECALCTEST\OBJ\X86\DEBUG\WIRECALCTEST.RESOURCES.RESOURCES
^C:\USERS\ANDREW\DOCUMENTS\VISUAL STUDIO 2010\PROJECTS\WIRECALCTEST\WIRECALCTEST\ABOUTBOX1.RESX|C:\USERS\ANDREW\DOCUMENTS\VISUAL STUDIO 2010\PROJECTS\WIRECALCTEST\WIRECALCTEST\FORM1.RESX|C:\USERS\ANDREW\DOCUMENTS\VISUAL STUDIO 2010\PROJECTS\WIRECALCTEST\WIRECALCTEST\FORM2.RESX|C:\USERS\ANDREW\DOCUMENTS\VISUAL STUDIO 2010\PROJECTS\WIRECALCTEST\WIRECALCTEST\FORM3.RESX|C:\USERS\ANDREW\DOCUMENTS\VISUAL STUDIO 2010\PROJECTS\WIRECALCTEST\WIRECALCTEST\FORM4.RESX|C:\USERS\ANDREW\DOCUMENTS\VISUAL STUDIO 2010\PROJECTS\WIRECALCTEST\WIRECALCTEST\MY PROJECT\RESOURCES.RESX
C:\USERS\ANDREW\DOCUMENTS\VISUAL STUDIO 2010\PROJECTS\WIRECALCTEST\WIRECALCTEST\OBJ\X86\DEBUG\WIRECALCTEST.ABOUTBOX1.RESOURCES
C:\USERS\ANDREW\DOCUMENTS\VISUAL STUDIO 2010\PROJECTS\WIRECALCTEST\WIRECALCTEST\OBJ\X86\DEBUG\WIRECALCTEST.FORM1.RESOURCES
C:\USERS\ANDREW\DOCUMENTS\VISUAL STUDIO 2010\PROJECTS\WIRECALCTEST\WIRECALCTEST\OBJ\X86\DEBUG\WIRECALCTEST.FORM3.RESOURCES
C:\USERS\ANDREW\DOCUMENTS\VISUAL STUDIO 2010\PROJECTS\WIRECALCTEST\WIRECALCTEST\OBJ\X86\DEBUG\WIRECALCTEST.FORM4.RESOURCES
C:\USERS\ANDREW\DOCUMENTS\VISUAL STUDIO 2010\PROJECTS\WIRECALCTEST\WIRECALCTEST\OBJ\X86\DEBUG\WIRECALCTEST.FORM2.RESOURCES
^F:\THIS ONE\THISONE\WIRECALCTEST\WIRECALCTEST\ABOUTBOX1.RESX|F:\THIS ONE\THISONE\WIRECALCTEST\WIRECALCTEST\FORM1.RESX|F:\THIS ONE\THISONE\WIRECALCTEST\WIRECALCTEST\FORM2.RESX|F:\THIS ONE\THISONE\WIRECALCTEST\WIRECALCTEST\FORM3.RESX|F:\THIS ONE\THISONE\WIRECALCTEST\WIRECALCTEST\FORM4.RESX|F:\THIS ONE\THISONE\WIRECALCTEST\WIRECALCTEST\MY PROJECT\RESOURCES.RESX
F:\THIS ONE\THISONE\WIRECALCTEST\WIRECALCTEST\OBJ\X86\DEBUG\WIRECALCTEST.ABOUTBOX1.RESOURCES
F:\THIS ONE\THISONE\WIRECALCTEST\WIRECALCTEST\OBJ\X86\DEBUG\WIRECALCTEST.FORM1.RESOURCES
F:\THIS ONE\THISONE\WIRECALCTEST\WIRECALCTEST\OBJ\X86\DEBUG\WIRECALCTEST.FORM2.RESOURCES
F:\THIS ONE\THISONE\WIRECALCTEST\WIRECALCTEST\OBJ\X86\DEBUG\WIRECALCTEST.FORM3.RESOURCES
F:\THIS ONE\THISONE\WIRECALCTEST\WIRECALCTEST\OBJ\X86\DEBUG\WIRECALCTEST.FORM4.RESOURCES
F:\THIS ONE\THISONE\WIRECALCTEST\WIRECALCTEST\OBJ\X86\DEBUG\WIRECALCTEST.RESOURCES.RESOURCES
^C:\DOCUMENTS AND SETTINGS\SOLENT REWINDS\MY DOCUMENTS\VISUAL STUDIO 2010\PROJECTS\THIS ONE\THISONE\WIRECALCTEST\WIRECALCTEST\ABOUTBOX1.RESX|C:\DOCUMENTS AND SETTINGS\SOLENT REWINDS\MY DOCUMENTS\VISUAL STUDIO 2010\PROJECTS\THIS ONE\THISONE\WIRECALCTEST\WIRECALCTEST\FORM1.RESX|C:\DOCUMENTS AND SETTINGS\SOLENT REWINDS\MY DOCUMENTS\VISUAL STUDIO 2010\PROJECTS\THIS ONE\THISONE\WIRECALCTEST\WIRECALCTEST\FORM2.RESX|C:\DOCUMENTS AND SETTINGS\SOLENT REWINDS\MY DOCUMENTS\VISUAL STUDIO 2010\PROJECTS\THIS ONE\THISONE\WIRECALCTEST\WIRECALCTEST\FORM3.RESX|C:\DOCUMENTS AND SETTINGS\SOLENT REWINDS\MY DOCUMENTS\VISUAL STUDIO 2010\PROJECTS\THIS ONE\THISONE\WIRECALCTEST\WIRECALCTEST\FORM4.RESX|C:\DOCUMENTS AND SETTINGS\SOLENT REWINDS\MY DOCUMENTS\VISUAL STUDIO 2010\PROJECTS\THIS ONE\THISONE\WIRECALCTEST\WIRECALCTEST\MY PROJECT\RESOURCES.RESX
C:\DOCUMENTS AND SETTINGS\SOLENT REWINDS\MY DOCUMENTS\VISUAL STUDIO 2010\PROJECTS\THIS ONE\THISONE\WIRECALCTEST\WIRECALCTEST\OBJ\X86\DEBUG\WIRECALCTEST.ABOUTBOX1.RESOURCES
C:\DOCUMENTS AND SETTINGS\SOLENT REWINDS\MY DOCUMENTS\VISUAL STUDIO 2010\PROJECTS\THIS ONE\THISONE\WIRECALCTEST\WIRECALCTEST\OBJ\X86\DEBUG\WIRECALCTEST.FORM1.RESOURCES
C:\DOCUMENTS AND SETTINGS\SOLENT REWINDS\MY DOCUMENTS\VISUAL STUDIO 2010\PROJECTS\THIS ONE\THISONE\WIRECALCTEST\WIRECALCTEST\OBJ\X86\DEBUG\WIRECALCTEST.FORM2.RESOURCES
C:\DOCUMENTS AND SETTINGS\SOLENT REWINDS\MY DOCUMENTS\VISUAL STUDIO 2010\PROJECTS\THIS ONE\THISONE\WIRECALCTEST\WIRECALCTEST\OBJ\X86\DEBUG\WIRECALCTEST.FORM3.RESOURCES
C:\DOCUMENTS AND SETTINGS\SOLENT REWINDS\MY DOCUMENTS\VISUAL STUDIO 2010\PROJECTS\THIS ONE\THISONE\WIRECALCTEST\WIRECALCTEST\OBJ\X86\DEBUG\WIRECALCTEST.FORM4.RESOURCES
C:\DOCUMENTS AND SETTINGS\SOLENT REWINDS\MY DOCUMENTS\VISUAL STUDIO 2010\PROJECTS\THIS ONE\THISONE\WIRECALCTEST\WIRECALCTEST\OBJ\X86\DEBUG\WIRECALCTEST.RESOURCES.RESOURCES
^C:\PROGRAMDATA\KASPERSKY LAB\SANDBOXSHARED\THIS ONE 001\THISONE\WIRECALCTEST\WIRECALCTEST\ABOUTBOX1.RESX|C:\PROGRAMDATA\KASPERSKY LAB\SANDBOXSHARED\THIS ONE 001\THISONE\WIRECALCTEST\WIRECALCTEST\FORM1.RESX|C:\PROGRAMDATA\KASPERSKY LAB\SANDBOXSHARED\THIS ONE 001\THISONE\WIRECALCTEST\WIRECALCTEST\FORM2.RESX|C:\PROGRAMDATA\KASPERSKY LAB\SANDBOXSHARED\THIS ONE 001\THISONE\WIRECALCTEST\WIRECALCTEST\FORM3.RESX|C:\PROGRAMDATA\KASPERSKY LAB\SANDBOXSHARED\THIS ONE 001\THISONE\WIRECALCTEST\WIRECALCTEST\FORM4.RESX|C:\PROGRAMDATA\KASPERSKY LAB\SANDBOXSHARED\THIS ONE 001\THISONE\WIRECALCTEST\WIRECALCTEST\MY PROJECT\RESOURCES.RESX
C:\PROGRAMDATA\KASPERSKY LAB\SANDBOXSHARED\THIS ONE 001\THISONE\WIRECALCTEST\WIRECALCTEST\OBJ\X86\DEBUG\WIRECALCTEST.ABOUTBOX1.RESOURCES
C:\PROGRAMDATA\KASPERSKY LAB\SANDBOXSHARED\THIS ONE 001\THISONE\WIRECALCTEST\WIRECALCTEST\OBJ\X86\DEBUG\WIRECALCTEST.FORM1.RESOURCES
C:\PROGRAMDATA\KASPERSKY LAB\SANDBOXSHARED\THIS ONE 001\THISONE\WIRECALCTEST\WIRECALCTEST\OBJ\X86\DEBUG\WIRECALCTEST.FORM2.RESOURCES
C:\PROGRAMDATA\KASPERSKY LAB\SANDBOXSHARED\THIS ONE 001\THISONE\WIRECALCTEST\WIRECALCTEST\OBJ\X86\DEBUG\WIRECALCTEST.FORM3.RESOURCES
C:\PROGRAMDATA\KASPERSKY LAB\SANDBOXSHARED\THIS ONE 001\THISONE\WIRECALCTEST\WIRECALCTEST\OBJ\X86\DEBUG\WIRECALCTEST.FORM4.RESOURCES
C:\PROGRAMDATA\KASPERSKY LAB\SANDBOXSHARED\THIS ONE 001\THISONE\WIRECALCTEST\WIRECALCTEST\OBJ\X86\DEBUG\WIRECALCTEST.RESOURCES.RESOURCES
^C:\USERS\ANDREW\DESKTOP\THIS ONE 001\THISONE\WIRECALCTEST\WIRECALCTEST\ABOUTBOX1.RESX|C:\USERS\ANDREW\DESKTOP\THIS ONE 001\THISONE\WIRECALCTEST\WIRECALCTEST\FORM1.RESX|C:\USERS\ANDREW\DESKTOP\THIS ONE 001\THISONE\WIRECALCTEST\WIRECALCTEST\FORM2.RESX|C:\USERS\ANDREW\DESKTOP\THIS ONE 001\THISONE\WIRECALCTEST\WIRECALCTEST\FORM3.RESX|C:\USERS\ANDREW\DESKTOP\THIS ONE 001\THISONE\WIRECALCTEST\WIRECALCTEST\FORM4.RESX|C:\USERS\ANDREW\DESKTOP\THIS ONE 001\THISONE\WIRECALCTEST\WIRECALCTEST\MY PROJECT\RESOURCES.RESX
C:\USERS\ANDREW\DESKTOP\THIS ONE 001\THISONE\WIRECALCTEST\WIRECALCTEST\OBJ\X86\DEBUG\WIRECALCTEST.ABOUTBOX1.RESOURCES
C:\USERS\ANDREW\DESKTOP\THIS ONE 001\THISONE\WIRECALCTEST\WIRECALCTEST\OBJ\X86\DEBUG\WIRECALCTEST.FORM1.RESOURCES
C:\USERS\ANDREW\DESKTOP\THIS ONE 001\THISONE\WIRECALCTEST\WIRECALCTEST\OBJ\X86\DEBUG\WIRECALCTEST.FORM2.RESOURCES
C:\USERS\ANDREW\DESKTOP\THIS ONE 001\THISONE\WIRECALCTEST\WIRECALCTEST\OBJ\X86\DEBUG\WIRECALCTEST.FORM3.RESOURCES
C:\USERS\ANDREW\DESKTOP\THIS ONE 001\THISONE\WIRECALCTEST\WIRECALCTEST\OBJ\X86\DEBUG\WIRECALCTEST.FORM4.RESOURCES
C:\USERS\ANDREW\DESKTOP\THIS ONE 001\THISONE\WIRECALCTEST\WIRECALCTEST\OBJ\X86\DEBUG\WIRECALCTEST.RESOURCES.RESOURCES
^E:\THIS ONE 001\THISONE\WIRECALCTEST\WIRECALCTEST\ABOUTBOX1.RESX|E:\THIS ONE 001\THISONE\WIRECALCTEST\WIRECALCTEST\FORM1.RESX|E:\THIS ONE 001\THISONE\WIRECALCTEST\WIRECALCTEST\FORM2.RESX|E:\THIS ONE 001\THISONE\WIRECALCTEST\WIRECALCTEST\FORM3.RESX|E:\THIS ONE 001\THISONE\WIRECALCTEST\WIRECALCTEST\FORM4.RESX|E:\THIS ONE 001\THISONE\WIRECALCTEST\WIRECALCTEST\MY PROJECT\RESOURCES.RESX
E:\THIS ONE 001\THISONE\WIRECALCTEST\WIRECALCTEST\OBJ\X86\DEBUG\WIRECALCTEST.ABOUTBOX1.RESOURCES
E:\THIS ONE 001\THISONE\WIRECALCTEST\WIRECALCTEST\OBJ\X86\DEBUG\WIRECALCTEST.FORM1.RESOURCES
E:\THIS ONE 001\THISONE\WIRECALCTEST\WIRECALCTEST\OBJ\X86\DEBUG\WIRECALCTEST.FORM2.RESOURCES
E:\THIS ONE 001\THISONE\WIRECALCTEST\WIRECALCTEST\OBJ\X86\DEBUG\WIRECALCTEST.FORM3.RESOURCES
E:\THIS ONE 001\THISONE\WIRECALCTEST\WIRECALCTEST\OBJ\X86\DEBUG\WIRECALCTEST.FORM4.RESOURCES
E:\THIS ONE 001\THISONE\WIRECALCTEST\WIRECALCTEST\OBJ\X86\DEBUG\WIRECALCTEST.RESOURCES.RESOURCES
^F:\THIS ONE 002\THISONE\WIRECALCTEST\WIRECALCTEST\ABOUTBOX1.RESX|F:\THIS ONE 002\THISONE\WIRECALCTEST\WIRECALCTEST\FORM1.RESX|F:\THIS ONE 002\THISONE\WIRECALCTEST\WIRECALCTEST\FORM2.RESX|F:\THIS ONE 002\THISONE\WIRECALCTEST\WIRECALCTEST\FORM3.RESX|F:\THIS ONE 002\THISONE\WIRECALCTEST\WIRECALCTEST\FORM4.RESX|F:\THIS ONE 002\THISONE\WIRECALCTEST\WIRECALCTEST\MY PROJECT\RESOURCES.RESX
F:\THIS ONE 002\THISONE\WIRECALCTEST\WIRECALCTEST\OBJ\X86\DEBUG\WIRECALCTEST.ABOUTBOX1.RESOURCES
F:\THIS ONE 002\THISONE\WIRECALCTEST\WIRECALCTEST\OBJ\X86\DEBUG\WIRECALCTEST.FORM1.RESOURCES
F:\THIS ONE 002\THISONE\WIRECALCTEST\WIRECALCTEST\OBJ\X86\DEBUG\WIRECALCTEST.FORM2.RESOURCES
F:\THIS ONE 002\THISONE\WIRECALCTEST\WIRECALCTEST\OBJ\X86\DEBUG\WIRECALCTEST.FORM3.RESOURCES
F:\THIS ONE 002\THISONE\WIRECALCTEST\WIRECALCTEST\OBJ\X86\DEBUG\WIRECALCTEST.FORM4.RESOURCES
F:\THIS ONE 002\THISONE\WIRECALCTEST\WIRECALCTEST\OBJ\X86\DEBUG\WIRECALCTEST.RESOURCES.RESOURCES
^E:\WINDING DESIGN 001\THISONE\WIRECALCTEST\WIRECALCTEST\ABOUTBOX1.RESX|E:\WINDING DESIGN 001\THISONE\WIRECALCTEST\WIRECALCTEST\FORM1.RESX|E:\WINDING DESIGN 001\THISONE\WIRECALCTEST\WIRECALCTEST\FORM2.RESX|E:\WINDING DESIGN 001\THISONE\WIRECALCTEST\WIRECALCTEST\FORM3.RESX|E:\WINDING DESIGN 001\THISONE\WIRECALCTEST\WIRECALCTEST\FORM4.RESX|E:\WINDING DESIGN 001\THISONE\WIRECALCTEST\WIRECALCTEST\MY PROJECT\RESOURCES.RESX
E:\WINDING DESIGN 001\THISONE\WIRECALCTEST\WIRECALCTEST\OBJ\X86\DEBUG\WIRECALCTEST.ABOUTBOX1.RESOURCES
E:\WINDING DESIGN 001\THISONE\WIRECALCTEST\WIRECALCTEST\OBJ\X86\DEBUG\WIRECALCTEST.FORM1.RESOURCES
E:\WINDING DESIGN 001\THISONE\WIRECALCTEST\WIRECALCTEST\OBJ\X86\DEBUG\WIRECALCTEST.FORM2.RESOURCES
E:\WINDING DESIGN 001\THISONE\WIRECALCTEST\WIRECALCTEST\OBJ\X86\DEBUG\WIRECALCTEST.FORM3.RESOURCES
E:\WINDING DESIGN 001\THISONE\WIRECALCTEST\WIRECALCTEST\OBJ\X86\DEBUG\WIRECALCTEST.FORM4.RESOURCES
E:\WINDING DESIGN 001\THISONE\WIRECALCTEST\WIRECALCTEST\OBJ\X86\DEBUG\WIRECALCTEST.RESOURCES.RESOURCES
^F:\WINDING DESIGN 001\THISONE\WIRECALCTEST\WIRECALCTEST\ABOUTBOX1.RESX|F:\WINDING DESIGN 001\THISONE\WIRECALCTEST\WIRECALCTEST\FORM1.RESX|F:\WINDING DESIGN 001\THISONE\WIRECALCTEST\WIRECALCTEST\FORM2.RESX|F:\WINDING DESIGN 001\THISONE\WIRECALCTEST\WIRECALCTEST\FORM3.RESX|F:\WINDING DESIGN 001\THISONE\WIRECALCTEST\WIRECALCTEST\FORM4.RESX|F:\WINDING DESIGN 001\THISONE\WIRECALCTEST\WIRECALCTEST\MY PROJECT\RESOURCES.RESX
F:\WINDING DESIGN 001\THISONE\WIRECALCTEST\WIRECALCTEST\OBJ\X86\DEBUG\WIRECALCTEST.ABOUTBOX1.RESOURCES
F:\WINDING DESIGN 001\THISONE\WIRECALCTEST\WIRECALCTEST\OBJ\X86\DEBUG\WIRECALCTEST.FORM1.RESOURCES
F:\WINDING DESIGN 001\THISONE\WIRECALCTEST\WIRECALCTEST\OBJ\X86\DEBUG\WIRECALCTEST.FORM2.RESOURCES
F:\WINDING DESIGN 001\THISONE\WIRECALCTEST\WIRECALCTEST\OBJ\X86\DEBUG\WIRECALCTEST.FORM3.RESOURCES
F:\WINDING DESIGN 001\THISONE\WIRECALCTEST\WIRECALCTEST\OBJ\X86\DEBUG\WIRECALCTEST.FORM4.RESOURCES
F:\WINDING DESIGN 001\THISONE\WIRECALCTEST\WIRECALCTEST\OBJ\X86\DEBUG\WIRECALCTEST.RESOURCES.RESOURCES
^E:\WINDING DESIGN 002\THISONE\WIRECALCTEST\WIRECALCTEST\ABOUTBOX1.RESX|E:\WINDING DESIGN 002\THISONE\WIRECALCTEST\WIRECALCTEST\FORM1.RESX|E:\WINDING DESIGN 002\THISONE\WIRECALCTEST\WIRECALCTEST\FORM2.RESX|E:\WINDING DESIGN 002\THISONE\WIRECALCTEST\WIRECALCTEST\FORM3.RESX|E:\WINDING DESIGN 002\THISONE\WIRECALCTEST\WIRECALCTEST\FORM4.RESX|E:\WINDING DESIGN 002\THISONE\WIRECALCTEST\WIRECALCTEST\MY PROJECT\RESOURCES.RESX
E:\WINDING DESIGN 002\THISONE\WIRECALCTEST\WIRECALCTEST\OBJ\X86\DEBUG\WIRECALCTEST.ABOUTBOX1.RESOURCES
E:\WINDING DESIGN 002\THISONE\WIRECALCTEST\WIRECALCTEST\OBJ\X86\DEBUG\WIRECALCTEST.FORM1.RESOURCES
E:\WINDING DESIGN 002\THISONE\WIRECALCTEST\WIRECALCTEST\OBJ\X86\DEBUG\WIRECALCTEST.FORM2.RESOURCES
E:\WINDING DESIGN 002\THISONE\WIRECALCTEST\WIRECALCTEST\OBJ\X86\DEBUG\WIRECALCTEST.FORM3.RESOURCES
E:\WINDING DESIGN 002\THISONE\WIRECALCTEST\WIRECALCTEST\OBJ\X86\DEBUG\WIRECALCTEST.FORM4.RESOURCES
E:\WINDING DESIGN 002\THISONE\WIRECALCTEST\WIRECALCTEST\OBJ\X86\DEBUG\WIRECALCTEST.RESOURCES.RESOURCES
^E:\WINDING DESIGN 002\THISONE\WIRECALCTEST\WIRECALCTEST\FORM1.RESX|E:\WINDING DESIGN 002\THISONE\WIRECALCTEST\WIRECALCTEST\FORM2.RESX|E:\WINDING DESIGN 002\THISONE\WIRECALCTEST\WIRECALCTEST\FORM3.RESX|E:\WINDING DESIGN 002\THISONE\WIRECALCTEST\WIRECALCTEST\FORM4.RESX|E:\WINDING DESIGN 002\THISONE\WIRECALCTEST\WIRECALCTEST\MY PROJECT\RESOURCES.RESX
E:\WINDING DESIGN 002\THISONE\WIRECALCTEST\WIRECALCTEST\OBJ\X86\DEBUG\WIRECALCTEST.FORM1.RESOURCES
E:\WINDING DESIGN 002\THISONE\WIRECALCTEST\WIRECALCTEST\OBJ\X86\DEBUG\WIRECALCTEST.FORM2.RESOURCES
E:\WINDING DESIGN 002\THISONE\WIRECALCTEST\WIRECALCTEST\OBJ\X86\DEBUG\WIRECALCTEST.FORM3.RESOURCES
E:\WINDING DESIGN 002\THISONE\WIRECALCTEST\WIRECALCTEST\OBJ\X86\DEBUG\WIRECALCTEST.FORM4.RESOURCES
E:\WINDING DESIGN 002\THISONE\WIRECALCTEST\WIRECALCTEST\OBJ\X86\DEBUG\WIRECALCTEST.RESOURCES.RESOURCES
^E:\WINDING DESIGN 002\THISONE\WIRECALCTEST\WIRECALCTEST\FORM1.RESX|E:\WINDING DESIGN 002\THISONE\WIRECALCTEST\WIRECALCTEST\FORM2.RESX|E:\WINDING DESIGN 002\THISONE\WIRECALCTEST\WIRECALCTEST\FORM3.RESX|E:\WINDING DESIGN 002\THISONE\WIRECALCTEST\WIRECALCTEST\FORM4.RESX|E:\WINDING DESIGN 002\THISONE\WIRECALCTEST\WIRECALCTEST\FORM5.RESX|E:\WINDING DESIGN 002\THISONE\WIRECALCTEST\WIRECALCTEST\MY PROJECT\RESOURCES.RESX
E:\WINDING DESIGN 002\THISONE\WIRECALCTEST\WIRECALCTEST\OBJ\X86\DEBUG\WIRECALCTEST.FORM1.RESOURCES
E:\WINDING DESIGN 002\THISONE\WIRECALCTEST\WIRECALCTEST\OBJ\X86\DEBUG\WIRECALCTEST.FORM2.RESOURCES
E:\WINDING DESIGN 002\THISONE\WIRECALCTEST\WIRECALCTEST\OBJ\X86\DEBUG\WIRECALCTEST.FORM3.RESOURCES
E:\WINDING DESIGN 002\THISONE\WIRECALCTEST\WIRECALCTEST\OBJ\X86\DEBUG\WIRECALCTEST.FORM4.RESOURCES
E:\WINDING DESIGN 002\THISONE\WIRECALCTEST\WIRECALCTEST\OBJ\X86\DEBUG\WIRECALCTEST.FORM5.RESOURCES
E:\WINDING DESIGN 002\THISONE\WIRECALCTEST\WIRECALCTEST\OBJ\X86\DEBUG\WIRECALCTEST.RESOURCES.RESOURCES
^F:\WINDING DESIGN 003\THISONE\WIRECALCTEST\WIRECALCTEST\FORM1.RESX|F:\WINDING DESIGN 003\THISONE\WIRECALCTEST\WIRECALCTEST\FORM2.RESX|F:\WINDING DESIGN 003\THISONE\WIRECALCTEST\WIRECALCTEST\FORM3.RESX|F:\WINDING DESIGN 003\THISONE\WIRECALCTEST\WIRECALCTEST\FORM4.RESX|F:\WINDING DESIGN 003\THISONE\WIRECALCTEST\WIRECALCTEST\FORM5.RESX|F:\WINDING DESIGN 003\THISONE\WIRECALCTEST\WIRECALCTEST\MY PROJECT\RESOURCES.RESX
F:\WINDING DESIGN 003\THISONE\WIRECALCTEST\WIRECALCTEST\OBJ\X86\DEBUG\WIRECALCTEST.FORM1.RESOURCES
F:\WINDING DESIGN 003\THISONE\WIRECALCTEST\WIRECALCTEST\OBJ\X86\DEBUG\WIRECALCTEST.FORM2.RESOURCES
F:\WINDING DESIGN 003\THISONE\WIRECALCTEST\WIRECALCTEST\OBJ\X86\DEBUG\WIRECALCTEST.FORM3.RESOURCES
F:\WINDING DESIGN 003\THISONE\WIRECALCTEST\WIRECALCTEST\OBJ\X86\DEBUG\WIRECALCTEST.FORM4.RESOURCES
F:\WINDING DESIGN 003\THISONE\WIRECALCTEST\WIRECALCTEST\OBJ\X86\DEBUG\WIRECALCTEST.FORM5.RESOURCES
F:\WINDING DESIGN 003\THISONE\WIRECALCTEST\WIRECALCTEST\OBJ\X86\DEBUG\WIRECALCTEST.RESOURCES.RESOURCES
^F:\WINDING DESIGN 003\THISONE\WIRECALCTEST\WIRECALCTEST\FORM1.RESX|F:\WINDING DESIGN 003\THISONE\WIRECALCTEST\WIRECALCTEST\FORM2.RESX|F:\WINDING DESIGN 003\THISONE\WIRECALCTEST\WIRECALCTEST\FORM3.RESX|F:\WINDING DESIGN 003\THISONE\WIRECALCTEST\WIRECALCTEST\FORM4.RESX|F:\WINDING DESIGN 003\THISONE\WIRECALCTEST\WIRECALCTEST\FORM5.RESX|F:\WINDING DESIGN 003\THISONE\WIRECALCTEST\WIRECALCTEST\FORM6.RESX|F:\WINDING DESIGN 003\THISONE\WIRECALCTEST\WIRECALCTEST\MY PROJECT\RESOURCES.RESX
F:\WINDING DESIGN 003\THISONE\WIRECALCTEST\WIRECALCTEST\OBJ\X86\DEBUG\WIRECALCTEST.FORM1.RESOURCES
F:\WINDING DESIGN 003\THISONE\WIRECALCTEST\WIRECALCTEST\OBJ\X86\DEBUG\WIRECALCTEST.FORM2.RESOURCES
F:\WINDING DESIGN 003\THISONE\WIRECALCTEST\WIRECALCTEST\OBJ\X86\DEBUG\WIRECALCTEST.FORM3.RESOURCES
F:\WINDING DESIGN 003\THISONE\WIRECALCTEST\WIRECALCTEST\OBJ\X86\DEBUG\WIRECALCTEST.FORM4.RESOURCES
F:\WINDING DESIGN 003\THISONE\WIRECALCTEST\WIRECALCTEST\OBJ\X86\DEBUG\WIRECALCTEST.FORM5.RESOURCES
F:\WINDING DESIGN 003\THISONE\WIRECALCTEST\WIRECALCTEST\OBJ\X86\DEBUG\WIRECALCTEST.FORM6.RESOURCES
F:\WINDING DESIGN 003\THISONE\WIRECALCTEST\WIRECALCTEST\OBJ\X86\DEBUG\WIRECALCTEST.RESOURCES.RESOURCES
^E:\WINDING DESIGN 003\THISONE\WIRECALCTEST\WIRECALCTEST\FORM1.RESX|E:\WINDING DESIGN 003\THISONE\WIRECALCTEST\WIRECALCTEST\FORM2.RESX|E:\WINDING DESIGN 003\THISONE\WIRECALCTEST\WIRECALCTEST\FORM3.RESX|E:\WINDING DESIGN 003\THISONE\WIRECALCTEST\WIRECALCTEST\FORM4.RESX|E:\WINDING DESIGN 003\THISONE\WIRECALCTEST\WIRECALCTEST\FORM5.RESX|E:\WINDING DESIGN 003\THISONE\WIRECALCTEST\WIRECALCTEST\FORM6.RESX|E:\WINDING DESIGN 003\THISONE\WIRECALCTEST\WIRECALCTEST\MY PROJECT\RESOURCES.RESX
E:\WINDING DESIGN 003\THISONE\WIRECALCTEST\WIRECALCTEST\OBJ\X86\DEBUG\WIRECALCTEST.FORM1.RESOURCES
E:\WINDING DESIGN 003\THISONE\WIRECALCTEST\WIRECALCTEST\OBJ\X86\DEBUG\WIRECALCTEST.FORM2.RESOURCES
E:\WINDING DESIGN 003\THISONE\WIRECALCTEST\WIRECALCTEST\OBJ\X86\DEBUG\WIRECALCTEST.FORM3.RESOURCES
E:\WINDING DESIGN 003\THISONE\WIRECALCTEST\WIRECALCTEST\OBJ\X86\DEBUG\WIRECALCTEST.FORM4.RESOURCES
E:\WINDING DESIGN 003\THISONE\WIRECALCTEST\WIRECALCTEST\OBJ\X86\DEBUG\WIRECALCTEST.FORM5.RESOURCES
E:\WINDING DESIGN 003\THISONE\WIRECALCTEST\WIRECALCTEST\OBJ\X86\DEBUG\WIRECALCTEST.FORM6.RESOURCES
E:\WINDING DESIGN 003\THISONE\WIRECALCTEST\WIRECALCTEST\OBJ\X86\DEBUG\WIRECALCTEST.RESOURCES.RESOURCES
^E:\WINDING DESIGN 004\THISONE\WIRECALCTEST\WIRECALCTEST\FORM1.RESX|E:\WINDING DESIGN 004\THISONE\WIRECALCTEST\WIRECALCTEST\FORM2.RESX|E:\WINDING DESIGN 004\THISONE\WIRECALCTEST\WIRECALCTEST\FORM3.RESX|E:\WINDING DESIGN 004\THISONE\WIRECALCTEST\WIRECALCTEST\FORM4.RESX|E:\WINDING DESIGN 004\THISONE\WIRECALCTEST\WIRECALCTEST\FORM5.RESX|E:\WINDING DESIGN 004\THISONE\WIRECALCTEST\WIRECALCTEST\FORM6.RESX|E:\WINDING DESIGN 004\THISONE\WIRECALCTEST\WIRECALCTEST\MY PROJECT\RESOURCES.RESX
E:\WINDING DESIGN 004\THISONE\WIRECALCTEST\WIRECALCTEST\OBJ\X86\DEBUG\WIRECALCTEST.FORM1.RESOURCES
E:\WINDING DESIGN 004\THISONE\WIRECALCTEST\WIRECALCTEST\OBJ\X86\DEBUG\WIRECALCTEST.FORM2.RESOURCES
E:\WINDING DESIGN 004\THISONE\WIRECALCTEST\WIRECALCTEST\OBJ\X86\DEBUG\WIRECALCTEST.FORM3.RESOURCES
E:\WINDING DESIGN 004\THISONE\WIRECALCTEST\WIRECALCTEST\OBJ\X86\DEBUG\WIRECALCTEST.FORM4.RESOURCES
E:\WINDING DESIGN 004\THISONE\WIRECALCTEST\WIRECALCTEST\OBJ\X86\DEBUG\WIRECALCTEST.FORM5.RESOURCES
E:\WINDING DESIGN 004\THISONE\WIRECALCTEST\WIRECALCTEST\OBJ\X86\DEBUG\WIRECALCTEST.FORM6.RESOURCES
E:\WINDING DESIGN 004\THISONE\WIRECALCTEST\WIRECALCTEST\OBJ\X86\DEBUG\WIRECALCTEST.RESOURCES.RESOURCES
^F:\WINDING DESIGN 004\THISONE\WIRECALCTEST\WIRECALCTEST\FORM1.RESX|F:\WINDING DESIGN 004\THISONE\WIRECALCTEST\WIRECALCTEST\FORM2.RESX|F:\WINDING DESIGN 004\THISONE\WIRECALCTEST\WIRECALCTEST\FORM3.RESX|F:\WINDING DESIGN 004\THISONE\WIRECALCTEST\WIRECALCTEST\FORM4.RESX|F:\WINDING DESIGN 004\THISONE\WIRECALCTEST\WIRECALCTEST\FORM5.RESX|F:\WINDING DESIGN 004\THISONE\WIRECALCTEST\WIRECALCTEST\FORM6.RESX|F:\WINDING DESIGN 004\THISONE\WIRECALCTEST\WIRECALCTEST\MY PROJECT\RESOURCES.RESX
F:\WINDING DESIGN 004\THISONE\WIRECALCTEST\WIRECALCTEST\OBJ\X86\DEBUG\WIRECALCTEST.FORM1.RESOURCES
F:\WINDING DESIGN 004\THISONE\WIRECALCTEST\WIRECALCTEST\OBJ\X86\DEBUG\WIRECALCTEST.FORM2.RESOURCES
F:\WINDING DESIGN 004\THISONE\WIRECALCTEST\WIRECALCTEST\OBJ\X86\DEBUG\WIRECALCTEST.FORM3.RESOURCES
F:\WINDING DESIGN 004\THISONE\WIRECALCTEST\WIRECALCTEST\OBJ\X86\DEBUG\WIRECALCTEST.FORM4.RESOURCES
F:\WINDING DESIGN 004\THISONE\WIRECALCTEST\WIRECALCTEST\OBJ\X86\DEBUG\WIRECALCTEST.FORM5.RESOURCES
F:\WINDING DESIGN 004\THISONE\WIRECALCTEST\WIRECALCTEST\OBJ\X86\DEBUG\WIRECALCTEST.FORM6.RESOURCES
F:\WINDING DESIGN 004\THISONE\WIRECALCTEST\WIRECALCTEST\OBJ\X86\DEBUG\WIRECALCTEST.RESOURCES.RESOURCES
^F:\WINDING DESIGN EVALUATION\THISONE\WIRECALCTEST\WIRECALCTEST\FORM1.RESX|F:\WINDING DESIGN EVALUATION\THISONE\WIRECALCTEST\WIRECALCTEST\FORM2.RESX|F:\WINDING DESIGN EVALUATION\THISONE\WIRECALCTEST\WIRECALCTEST\FORM3.RESX|F:\WINDING DESIGN EVALUATION\THISONE\WIRECALCTEST\WIRECALCTEST\FORM4.RESX|F:\WINDING DESIGN EVALUATION\THISONE\WIRECALCTEST\WIRECALCTEST\FORM5.RESX|F:\WINDING DESIGN EVALUATION\THISONE\WIRECALCTEST\WIRECALCTEST\FORM6.RESX|F:\WINDING DESIGN EVALUATION\THISONE\WIRECALCTEST\WIRECALCTEST\MY PROJECT\RESOURCES.RESX
F:\WINDING DESIGN EVALUATION\THISONE\WIRECALCTEST\WIRECALCTEST\OBJ\X86\DEBUG\WIRECALCTEST.FORM1.RESOURCES
F:\WINDING DESIGN EVALUATION\THISONE\WIRECALCTEST\WIRECALCTEST\OBJ\X86\DEBUG\WIRECALCTEST.FORM2.RESOURCES
F:\WINDING DESIGN EVALUATION\THISONE\WIRECALCTEST\WIRECALCTEST\OBJ\X86\DEBUG\WIRECALCTEST.FORM3.RESOURCES
F:\WINDING DESIGN EVALUATION\THISONE\WIRECALCTEST\WIRECALCTEST\OBJ\X86\DEBUG\WIRECALCTEST.FORM4.RESOURCES
F:\WINDING DESIGN EVALUATION\THISONE\WIRECALCTEST\WIRECALCTEST\OBJ\X86\DEBUG\WIRECALCTEST.FORM5.RESOURCES
F:\WINDING DESIGN EVALUATION\THISONE\WIRECALCTEST\WIRECALCTEST\OBJ\X86\DEBUG\WIRECALCTEST.FORM6.RESOURCES
F:\WINDING DESIGN EVALUATION\THISONE\WIRECALCTEST\WIRECALCTEST\OBJ\X86\DEBUG\WIRECALCTEST.RESOURCES.RESOURCES
^F:\WINDING DESIGN EVALUATION 2\THISONE\WIRECALCTEST\WIRECALCTEST\FORM1.RESX|F:\WINDING DESIGN EVALUATION 2\THISONE\WIRECALCTEST\WIRECALCTEST\FORM2.RESX|F:\WINDING DESIGN EVALUATION 2\THISONE\WIRECALCTEST\WIRECALCTEST\FORM3.RESX|F:\WINDING DESIGN EVALUATION 2\THISONE\WIRECALCTEST\WIRECALCTEST\FORM4.RESX|F:\WINDING DESIGN EVALUATION 2\THISONE\WIRECALCTEST\WIRECALCTEST\FORM5.RESX|F:\WINDING DESIGN EVALUATION 2\THISONE\WIRECALCTEST\WIRECALCTEST\FORM6.RESX|F:\WINDING DESIGN EVALUATION 2\THISONE\WIRECALCTEST\WIRECALCTEST\MY PROJECT\RESOURCES.RESX
F:\WINDING DESIGN EVALUATION 2\THISONE\WIRECALCTEST\WIRECALCTEST\OBJ\X86\DEBUG\WIRECALCTEST.FORM1.RESOURCES
F:\WINDING DESIGN EVALUATION 2\THISONE\WIRECALCTEST\WIRECALCTEST\OBJ\X86\DEBUG\WIRECALCTEST.FORM2.RESOURCES
F:\WINDING DESIGN EVALUATION 2\THISONE\WIRECALCTEST\WIRECALCTEST\OBJ\X86\DEBUG\WIRECALCTEST.FORM3.RESOURCES
F:\WINDING DESIGN EVALUATION 2\THISONE\WIRECALCTEST\WIRECALCTEST\OBJ\X86\DEBUG\WIRECALCTEST.FORM4.RESOURCES
F:\WINDING DESIGN EVALUATION 2\THISONE\WIRECALCTEST\WIRECALCTEST\OBJ\X86\DEBUG\WIRECALCTEST.FORM5.RESOURCES
F:\WINDING DESIGN EVALUATION 2\THISONE\WIRECALCTEST\WIRECALCTEST\OBJ\X86\DEBUG\WIRECALCTEST.FORM6.RESOURCES
F:\WINDING DESIGN EVALUATION 2\THISONE\WIRECALCTEST\WIRECALCTEST\OBJ\X86\DEBUG\WIRECALCTEST.RESOURCES.RESOURCES
^E:\WINDING DESIGN EVALUATION 2\THISONE\WIRECALCTEST\WIRECALCTEST\FORM1.RESX|E:\WINDING DESIGN EVALUATION 2\THISONE\WIRECALCTEST\WIRECALCTEST\FORM2.RESX|E:\WINDING DESIGN EVALUATION 2\THISONE\WIRECALCTEST\WIRECALCTEST\FORM3.RESX|E:\WINDING DESIGN EVALUATION 2\THISONE\WIRECALCTEST\WIRECALCTEST\FORM4.RESX|E:\WINDING DESIGN EVALUATION 2\THISONE\WIRECALCTEST\WIRECALCTEST\FORM5.RESX|E:\WINDING DESIGN EVALUATION 2\THISONE\WIRECALCTEST\WIRECALCTEST\FORM6.RESX|E:\WINDING DESIGN EVALUATION 2\THISONE\WIRECALCTEST\WIRECALCTEST\MY PROJECT\RESOURCES.RESX
E:\WINDING DESIGN EVALUATION 2\THISONE\WIRECALCTEST\WIRECALCTEST\OBJ\X86\DEBUG\WIRECALCTEST.FORM1.RESOURCES
E:\WINDING DESIGN EVALUATION 2\THISONE\WIRECALCTEST\WIRECALCTEST\OBJ\X86\DEBUG\WIRECALCTEST.FORM2.RESOURCES
E:\WINDING DESIGN EVALUATION 2\THISONE\WIRECALCTEST\WIRECALCTEST\OBJ\X86\DEBUG\WIRECALCTEST.FORM3.RESOURCES
E:\WINDING DESIGN EVALUATION 2\THISONE\WIRECALCTEST\WIRECALCTEST\OBJ\X86\DEBUG\WIRECALCTEST.FORM4.RESOURCES
E:\WINDING DESIGN EVALUATION 2\THISONE\WIRECALCTEST\WIRECALCTEST\OBJ\X86\DEBUG\WIRECALCTEST.FORM5.RESOURCES
E:\WINDING DESIGN EVALUATION 2\THISONE\WIRECALCTEST\WIRECALCTEST\OBJ\X86\DEBUG\WIRECALCTEST.FORM6.RESOURCES
E:\WINDING DESIGN EVALUATION 2\THISONE\WIRECALCTEST\WIRECALCTEST\OBJ\X86\DEBUG\WIRECALCTEST.RESOURCES.RESOURCES
^C:\DOCUMENTS AND SETTINGS\SOLENT REWINDS\DESKTOP\WINDING DESIGN EVALUATION 3\THISONE\WIRECALCTEST\WIRECALCTEST\FORM1.RESX|C:\DOCUMENTS AND SETTINGS\SOLENT REWINDS\DESKTOP\WINDING DESIGN EVALUATION 3\THISONE\WIRECALCTEST\WIRECALCTEST\FORM2.RESX|C:\DOCUMENTS AND SETTINGS\SOLENT REWINDS\DESKTOP\WINDING DESIGN EVALUATION 3\THISONE\WIRECALCTEST\WIRECALCTEST\FORM3.RESX|C:\DOCUMENTS AND SETTINGS\SOLENT REWINDS\DESKTOP\WINDING DESIGN EVALUATION 3\THISONE\WIRECALCTEST\WIRECALCTEST\FORM4.RESX|C:\DOCUMENTS AND SETTINGS\SOLENT REWINDS\DESKTOP\WINDING DESIGN EVALUATION 3\THISONE\WIRECALCTEST\WIRECALCTEST\FORM5.RESX|C:\DOCUMENTS AND SETTINGS\SOLENT REWINDS\DESKTOP\WINDING DESIGN EVALUATION 3\THISONE\WIRECALCTEST\WIRECALCTEST\FORM6.RESX|C:\DOCUMENTS AND SETTINGS\SOLENT REWINDS\DESKTOP\WINDING DESIGN EVALUATION 3\THISONE\WIRECALCTEST\WIRECALCTEST\MY PROJECT\RESOURCES.RESX
C:\DOCUMENTS AND SETTINGS\SOLENT REWINDS\DESKTOP\WINDING DESIGN EVALUATION 3\THISONE\WIRECALCTEST\WIRECALCTEST\OBJ\X86\DEBUG\WIRECALCTEST.FORM1.RESOURCES
C:\DOCUMENTS AND SETTINGS\SOLENT REWINDS\DESKTOP\WINDING DESIGN EVALUATION 3\THISONE\WIRECALCTEST\WIRECALCTEST\OBJ\X86\DEBUG\WIRECALCTEST.FORM2.RESOURCES
C:\DOCUMENTS AND SETTINGS\SOLENT REWINDS\DESKTOP\WINDING DESIGN EVALUATION 3\THISONE\WIRECALCTEST\WIRECALCTEST\OBJ\X86\DEBUG\WIRECALCTEST.FORM3.RESOURCES
C:\DOCUMENTS AND SETTINGS\SOLENT REWINDS\DESKTOP\WINDING DESIGN EVALUATION 3\THISONE\WIRECALCTEST\WIRECALCTEST\OBJ\X86\DEBUG\WIRECALCTEST.FORM4.RESOURCES
C:\DOCUMENTS AND SETTINGS\SOLENT REWINDS\DESKTOP\WINDING DESIGN EVALUATION 3\THISONE\WIRECALCTEST\WIRECALCTEST\OBJ\X86\DEBUG\WIRECALCTEST.FORM5.RESOURCES
C:\DOCUMENTS AND SETTINGS\SOLENT REWINDS\DESKTOP\WINDING DESIGN EVALUATION 3\THISONE\WIRECALCTEST\WIRECALCTEST\OBJ\X86\DEBUG\WIRECALCTEST.FORM6.RESOURCES
C:\DOCUMENTS AND SETTINGS\SOLENT REWINDS\DESKTOP\WINDING DESIGN EVALUATION 3\THISONE\WIRECALCTEST\WIRECALCTEST\OBJ\X86\DEBUG\WIRECALCTEST.RESOURCES.RESOURCES
^C:\DOCUMENTS AND SETTINGS\SOLENT REWINDS\DESKTOP\WINDING DESIGN EVALUATION 4\THISONE\WIRECALCTEST\WIRECALCTEST\FORM1.RESX|C:\DOCUMENTS AND SETTINGS\SOLENT REWINDS\DESKTOP\WINDING DESIGN EVALUATION 4\THISONE\WIRECALCTEST\WIRECALCTEST\FORM2.RESX|C:\DOCUMENTS AND SETTINGS\SOLENT REWINDS\DESKTOP\WINDING DESIGN EVALUATION 4\THISONE\WIRECALCTEST\WIRECALCTEST\FORM3.RESX|C:\DOCUMENTS AND SETTINGS\SOLENT REWINDS\DESKTOP\WINDING DESIGN EVALUATION 4\THISONE\WIRECALCTEST\WIRECALCTEST\FORM4.RESX|C:\DOCUMENTS AND SETTINGS\SOLENT REWINDS\DESKTOP\WINDING DESIGN EVALUATION 4\THISONE\WIRECALCTEST\WIRECALCTEST\FORM5.RESX|C:\DOCUMENTS AND SETTINGS\SOLENT REWINDS\DESKTOP\WINDING DESIGN EVALUATION 4\THISONE\WIRECALCTEST\WIRECALCTEST\FORM6.RESX|C:\DOCUMENTS AND SETTINGS\SOLENT REWINDS\DESKTOP\WINDING DESIGN EVALUATION 4\THISONE\WIRECALCTEST\WIRECALCTEST\MY PROJECT\RESOURCES.RESX
C:\DOCUMENTS AND SETTINGS\SOLENT REWINDS\DESKTOP\WINDING DESIGN EVALUATION 4\THISONE\WIRECALCTEST\WIRECALCTEST\OBJ\X86\DEBUG\WIRECALCTEST.FORM1.RESOURCES
C:\DOCUMENTS AND SETTINGS\SOLENT REWINDS\DESKTOP\WINDING DESIGN EVALUATION 4\THISONE\WIRECALCTEST\WIRECALCTEST\OBJ\X86\DEBUG\WIRECALCTEST.FORM2.RESOURCES
C:\DOCUMENTS AND SETTINGS\SOLENT REWINDS\DESKTOP\WINDING DESIGN EVALUATION 4\THISONE\WIRECALCTEST\WIRECALCTEST\OBJ\X86\DEBUG\WIRECALCTEST.FORM3.RESOURCES
C:\DOCUMENTS AND SETTINGS\SOLENT REWINDS\DESKTOP\WINDING DESIGN EVALUATION 4\THISONE\WIRECALCTEST\WIRECALCTEST\OBJ\X86\DEBUG\WIRECALCTEST.FORM4.RESOURCES
C:\DOCUMENTS AND SETTINGS\SOLENT REWINDS\DESKTOP\WINDING DESIGN EVALUATION 4\THISONE\WIRECALCTEST\WIRECALCTEST\OBJ\X86\DEBUG\WIRECALCTEST.FORM5.RESOURCES
C:\DOCUMENTS AND SETTINGS\SOLENT REWINDS\DESKTOP\WINDING DESIGN EVALUATION 4\THISONE\WIRECALCTEST\WIRECALCTEST\OBJ\X86\DEBUG\WIRECALCTEST.FORM6.RESOURCES
C:\DOCUMENTS AND SETTINGS\SOLENT REWINDS\DESKTOP\WINDING DESIGN EVALUATION 4\THISONE\WIRECALCTEST\WIRECALCTEST\OBJ\X86\DEBUG\WIRECALCTEST.RESOURCES.RESOURCES
^C:\USERS\SOLENT REWINDS LTD\DESKTOP\WINDING DESIGN EVALUATION 4\THISONE\WIRECALCTEST\WIRECALCTEST\FORM1.RESX|C:\USERS\SOLENT REWINDS LTD\DESKTOP\WINDING DESIGN EVALUATION 4\THISONE\WIRECALCTEST\WIRECALCTEST\FORM2.RESX|C:\USERS\SOLENT REWINDS LTD\DESKTOP\WINDING DESIGN EVALUATION 4\THISONE\WIRECALCTEST\WIRECALCTEST\FORM3.RESX|C:\USERS\SOLENT REWINDS LTD\DESKTOP\WINDING DESIGN EVALUATION 4\THISONE\WIRECALCTEST\WIRECALCTEST\FORM4.RESX|C:\USERS\SOLENT REWINDS LTD\DESKTOP\WINDING DESIGN EVALUATION 4\THISONE\WIRECALCTEST\WIRECALCTEST\FORM5.RESX|C:\USERS\SOLENT REWINDS LTD\DESKTOP\WINDING DESIGN EVALUATION 4\THISONE\WIRECALCTEST\WIRECALCTEST\FORM6.RESX|C:\USERS\SOLENT REWINDS LTD\DESKTOP\WINDING DESIGN EVALUATION 4\THISONE\WIRECALCTEST\WIRECALCTEST\MY PROJECT\RESOURCES.RESX
C:\USERS\SOLENT REWINDS LTD\DESKTOP\WINDING DESIGN EVALUATION 4\THISONE\WIRECALCTEST\WIRECALCTEST\OBJ\X86\DEBUG\WIRECALCTEST.FORM1.RESOURCES
C:\USERS\SOLENT REWINDS LTD\DESKTOP\WINDING DESIGN EVALUATION 4\THISONE\WIRECALCTEST\WIRECALCTEST\OBJ\X86\DEBUG\WIRECALCTEST.FORM2.RESOURCES
C:\USERS\SOLENT REWINDS LTD\DESKTOP\WINDING DESIGN EVALUATION 4\THISONE\WIRECALCTEST\WIRECALCTEST\OBJ\X86\DEBUG\WIRECALCTEST.FORM3.RESOURCES
C:\USERS\SOLENT REWINDS LTD\DESKTOP\WINDING DESIGN EVALUATION 4\THISONE\WIRECALCTEST\WIRECALCTEST\OBJ\X86\DEBUG\WIRECALCTEST.FORM4.RESOURCES
C:\USERS\SOLENT REWINDS LTD\DESKTOP\WINDING DESIGN EVALUATION 4\THISONE\WIRECALCTEST\WIRECALCTEST\OBJ\X86\DEBUG\WIRECALCTEST.FORM5.RESOURCES
C:\USERS\SOLENT REWINDS LTD\DESKTOP\WINDING DESIGN EVALUATION 4\THISONE\WIRECALCTEST\WIRECALCTEST\OBJ\X86\DEBUG\WIRECALCTEST.FORM6.RESOURCES
C:\USERS\SOLENT REWINDS LTD\DESKTOP\WINDING DESIGN EVALUATION 4\THISONE\WIRECALCTEST\WIRECALCTEST\OBJ\X86\DEBUG\WIRECALCTEST.RESOURCES.RESOURCES
